Lab1 • SemesterProject7709
…
#>  9           9              70              85               93               87
#> 10          10              50              81               96               90
#> # … with 8 more variables: Noisy_Evening_A <dbl>, Noisy_Evening_B <dbl>,
#> #   Quiet_Morning_A <dbl>, Quiet_Morning_B <dbl>, Quiet_Afternoon_A <dbl>,
#> #   Quiet_Afternoon_B <dbl>, Quiet_Evening_A <dbl>, Quiet_Evening_B <dbl>
##Pivot time!
library(tidyr)
long_data <- wide_data2 %>% pivot_longer(
  cols = 2:13,
  names_to = c("Loudness","Time","Letter"),
  names_pattern = "(.*)_(.*)_(.*)",
  values_to = "DV"
)
long_data
#> # A tibble: 120 × 5
#>    Participant Loudness Time      Letter    DV
#>          <dbl> <chr>    <chr>     <chr>  <dbl>
#>  1           1 Noisy    Morning   A         61
#>  2           1 Noisy    Morning   B         77
#>  3           1 Noisy    Afternoon A         97
#>  4           1 Noisy    Afternoon B         97
#>  5           1 Noisy    Evening   A         89
#>  6           1 Noisy    Evening   B         94
#>  7           1 Quiet    Morning   A         87
#>  8           1 Quiet    Morning   B         87
#>  9           1 Quiet    Afternoon A         65
#> 10           1 Quiet    Afternoon B         53
#> # … with 110 more rows
…
